first           [32m0[38;2;255;255;255m       [32m100[38;2;255;255;255m     [32m███████████████████████████████████████████████[0m
second          [32m100[38;2;255;255;255m     [32m0[38;2;255;255;255m       [31m███████████████████████████████████████████████[0m
middle          [32m10[38;2;255;255;255m      [32m10[38;2;255;255;255m      [31m████████████████████████[32m███████████████████████[0m
