Duration        [32m20.3[38;2;255;255;255m                    [32m▅▅▅▅▅▅▅▅▅▅▅▅▅▅▅▅▅▅▅▅▅▅▅▅▅▅▅▅▅▅▅▅[30m▔▔▔▔▔▔▔[0m
Time            [32m28.0 (user) 2.0 (sys)[38;2;255;255;255m   [31m▅▅▅[32m▅▅▅▅▅▅▅▅▅▅▅▅▅▅▅▅▅▅▅▅▅▅▅▅▅▅▅▅▅▅▅▅▅▅▅▅[0m

[32m▔▀▁▂▃▄▅▆▇█[0m
F_UPPER         [32m28.0 (user) 2.0 (sys)[38;2;255;255;255m   [31m▔▔▔[32m▔▔▔▔▔▔▔▔▔▔▔▔▔▔▔▔▔▔▔▔▔▔▔▔▔▔▔▔▔▔▔▔▔▔▔▔[0m
F_THICK_UPPER   [32m28.0 (user) 2.0 (sys)[38;2;255;255;255m   [31m▀▀▀[32m▀▀▀▀▀▀▀▀▀▀▀▀▀▀▀▀▀▀▀▀▀▀▀▀▀▀▀▀▀▀▀▀▀▀▀▀[0m
F_LOWER         [32m28.0 (user) 2.0 (sys)[38;2;255;255;255m   [31m▁▁▁[32m▁▁▁▁▁▁▁▁▁▁▁▁▁▁▁▁▁▁▁▁▁▁▁▁▁▁▁▁▁▁▁▁▁▁▁▁[0m
F_LOW1          [32m28.0 (user) 2.0 (sys)[38;2;255;255;255m   [31m▂▂▂[32m▂▂▂▂▂▂▂▂▂▂▂▂▂▂▂▂▂▂▂▂▂▂▂▂▂▂▂▂▂▂▂▂▂▂▂▂[0m
F_LOW2          [32m28.0 (user) 2.0 (sys)[38;2;255;255;255m   [31m▃▃▃[32m▃▃▃▃▃▃▃▃▃▃▃▃▃▃▃▃▃▃▃▃▃▃▃▃▃▃▃▃▃▃▃▃▃▃▃▃[0m
F_LOW3          [32m28.0 (user) 2.0 (sys)[38;2;255;255;255m   [31m▄▄▄[32m▄▄▄▄▄▄▄▄▄▄▄▄▄▄▄▄▄▄▄▄▄▄▄▄▄▄▄▄▄▄▄▄▄▄▄▄[0m
F_MED1          [32m28.0 (user) 2.0 (sys)[38;2;255;255;255m   [31m▅▅▅[32m▅▅▅▅▅▅▅▅▅▅▅▅▅▅▅▅▅▅▅▅▅▅▅▅▅▅▅▅▅▅▅▅▅▅▅▅[0m
F_MED2          [32m28.0 (user) 2.0 (sys)[38;2;255;255;255m   [31m▆▆▆[32m▆▆▆▆▆▆▆▆▆▆▆▆▆▆▆▆▆▆▆▆▆▆▆▆▆▆▆▆▆▆▆▆▆▆▆▆[0m
F_MED3          [32m28.0 (user) 2.0 (sys)[38;2;255;255;255m   [31m▇▇▇[32m▇▇▇▇▇▇▇▇▇▇▇▇▇▇▇▇▇▇▇▇▇▇▇▇▇▇▇▇▇▇▇▇▇▇▇▇[0m
F_FULL          [32m28.0 (user) 2.0 (sys)[38;2;255;255;255m   [31m███[32m████████████████████████████████████[0m
F_HLINE1        [32m28.0 (user) 2.0 (sys)[38;2;255;255;255m   [31m───[32m────────────────────────────────────[0m
F_HLINE2        [32m28.0 (user) 2.0 (sys)[38;2;255;255;255m   [31m━━━[32m━━━━━━━━━━━━━━━━━━━━━━━━━━━━━━━━━━━━[0m
